<?xml version="1.0" encoding="UTF-8"?>
<svg width="72px" height="72px" viewBox="0 0 72 72" version="1.1" xmlns="http://www.w3.org/2000/svg" xmlns:xlink="http://www.w3.org/1999/xlink">
    <!-- Generator: Sketch 47.1 (45422) - http://www.bohemiancoding.com/sketch -->
    <title>Page 1</title>
    <desc>Created with Sketch.</desc>
    <defs></defs>
    <g id="Sobre---Sistran" stroke="none" stroke-width="1" fill="none" fill-rule="evenodd">
        <g id="2-Sobre" transform="translate(-551.000000, -4393.000000)" stroke="#F3A83A" fill="#F3A83A">
            <g id="Group-23" transform="translate(237.000000, 4385.000000)">
                <g id="analisefuncional" transform="translate(246.666667, 9.000000)">
                    <path d="M131.381594,70.0596373 C129.712113,70.0596373 128.102149,69.4037483 126.909645,68.2112449 L112.718879,54.0204782 C101.270822,61.2351361 86.185738,59.5656556 76.5264359,49.9063535 C71.0408959,44.4208135 68,37.0272437 68,29.2163341 C68,21.4054245 71.0408959,14.0716132 76.5860732,8.52643591 C82.071492,3.04089588 89.4054245,0 97.2163341,0 C105.027244,0 112.361176,3.04089588 117.906232,8.5860732 C127.804084,18.4838032 129.294652,34.0459851 121.483864,45.5536796 C121.12604,46.090294 120.350876,46.2692059 119.814262,45.8518661 C119.277648,45.4940423 119.098736,44.7188787 119.516197,44.1822643 C126.671217,33.569008 125.299802,19.2589668 116.236752,10.1959165 C111.168673,5.18747478 104.430992,2.38500687 97.2163341,2.38500687 C90.0613135,2.38500687 83.3236327,5.18747478 78.2555538,10.2555538 C73.1873536,15.323754 70.3850069,22.0613135 70.3850069,29.2163341 C70.3850069,36.3713547 73.1873536,43.1090355 78.2555538,48.1772357 C87.3186041,57.2401648 101.628645,58.6115801 112.241902,51.4565595 C112.718879,51.1584942 113.374768,51.2181315 113.73247,51.5758341 L128.579247,66.4224897 C129.35429,67.1976533 130.308365,67.5553558 131.381594,67.5553558 C132.454823,67.5553558 133.408898,67.138016 134.183941,66.4224897 L134.541764,66.0647872 C136.09197,64.51446 136.09197,62.0101785 134.541764,60.4599725 L123.928387,50.0256281 C123.45141,49.5485298 123.45141,48.8331247 123.928387,48.3560263 C124.405485,47.8790492 125.12089,47.8790492 125.597989,48.3560263 L136.151608,58.9097666 C137.344111,60.10227 138,61.7121133 138,63.3815938 C138,65.0510744 137.344111,66.6610389 136.151608,67.8535423 L135.793905,68.2112449 C134.660918,69.4037483 133.051074,70.0596373 131.381594,70.0596373 Z" id="Page-1"></path>
                </g>
            </g>
        </g>
    </g>
</svg>