<?xml version="1.0" encoding="UTF-8"?>
<svg width="26px" height="36px" viewBox="0 0 26 36" version="1.1" xmlns="http://www.w3.org/2000/svg" xmlns:xlink="http://www.w3.org/1999/xlink">
    <!-- Generator: Sketch 47.1 (45422) - http://www.bohemiancoding.com/sketch -->
    <title>Colaboradores</title>
    <desc>Created with Sketch.</desc>
    <defs></defs>
    <g id="Sobre---Sistran" stroke="none" stroke-width="1" fill="none" fill-rule="evenodd">
        <g id="2-Sobre" transform="translate(-897.000000, -1378.000000)" stroke="#F3A83A" stroke-width="0.5" fill="#F3A83A">
            <g id="Colaboradores" transform="translate(898.000000, 1379.000000)">
                <path d="M7.49988273,1.14634202 C5.66531155,1.14634202 4.17269955,2.60517688 4.17269955,4.39874361 C4.17269955,6.34385675 5.7860996,8.85365798 7.49988273,8.85365798 C9.21366586,8.85365798 10.827535,6.34385675 10.827535,4.39874361 C10.827535,2.60517688 9.33445391,1.14634202 7.49988273,1.14634202 M7.49988273,10 C4.88921898,10 3,6.6540569 3,4.39874361 C3,1.97285462 5.01845047,0 7.49988273,0 C9.98131499,0 12,1.97285462 12,4.39874361 C12,6.6540569 10.1105465,10 7.49988273,10" id="Fill-1"></path>
                <path d="M11.719388,23 L9.74828261,23 C9.43654458,23 9.18394874,22.7479966 9.18394874,22.4369898 C9.18394874,22.1259829 9.43654458,21.8739795 9.74828261,21.8739795 L11.1961376,21.8739795 L11.8471532,13.2880736 C11.2340608,12.9410341 9.47740235,12.1260205 6.50020257,12.1260205 C3.52548586,12.1260205 1.76860164,12.9401332 1.15257479,13.288524 L1.80426754,21.8739795 L3.25212253,21.8739795 C3.56386056,21.8739795 3.8164564,22.1259829 3.8164564,22.4369898 C3.8164564,22.7479966 3.56386056,23 3.25212253,23 L1.28101717,23 C0.985531959,23 0.740385324,22.7729943 0.718037703,22.4791029 L0.001559417,13.0351694 C-0.0126617966,12.8441963 0.0710853502,12.6590785 0.224132697,12.5433236 C0.307879843,12.4804917 2.3214231,11 6.50020257,11 C10.6801107,11 12.6925253,12.4804917 12.775821,12.543774 C12.9290941,12.6590785 13.0128412,12.8441963 12.9983943,13.0351694 L12.281916,22.4791029 C12.2600198,22.7729943 12.0144217,23 11.719388,23" id="Fill-3"></path>
                <path d="M9.15549952,34 L4.84564033,34 C4.54295307,34 4.28952947,33.7852641 4.25660809,33.5027403 L3.00346389,22.6176583 C2.9684109,22.311498 3.20336064,22.0363327 3.52854812,22.0031078 C3.85468299,21.9709977 4.14576486,22.1913083 4.18081785,22.4974687 L5.37711937,32.8850679 L8.62402049,32.8850679 L9.81937463,22.4974687 C9.85442761,22.1913083 10.1450358,21.9709977 10.472118,22.0031078 C10.7968318,22.0363327 11.0317816,22.311498 10.9964917,22.6176583 L9.74382124,33.5027403 C9.71161038,33.7852641 9.45747625,34 9.15549952,34" id="Fill-5"></path>
                <path d="M18,4.12929131 C16.4225095,4.12929131 15.1391468,5.40155089 15.1391468,6.9653935 C15.1391468,8.67017165 16.5261719,10.8707087 18,10.8707087 C19.4733724,10.8707087 20.8608532,8.67017165 20.8608532,6.9653935 C20.8608532,5.40155089 19.5774905,4.12929131 18,4.12929131 M18,12 C15.6793302,12 14,8.99269725 14,6.9653935 C14,4.77863381 15.7941562,3 18,3 C20.2053882,3 22,4.77863381 22,6.9653935 C22,8.99269725 20.3202142,12 18,12" id="Fill-7"></path>
                <path d="M22.707259,24 L20.8085214,24 C20.4757182,24 20.2060536,23.7465615 20.2060536,23.4337836 C20.2060536,23.1210056 20.4757182,22.8675671 20.8085214,22.8675671 L22.1486508,22.8675671 L22.7626861,15.2462939 C21.7842783,14.914944 19.298255,14.1324329 17.6800264,14.1324329 C15.6301899,14.1324329 12.8417278,15.1047397 12.8135323,15.1149316 C12.5024179,15.2236452 12.1546734,15.075523 12.0385176,14.7826758 C11.9216389,14.4898287 12.0797264,14.163688 12.3913228,14.0540685 C12.5137443,14.0110361 15.4140244,13 17.6800264,13 C19.9491613,13 23.4678144,14.281461 23.6165035,14.3358178 C23.8637563,14.4264125 24.01847,14.6578817 23.9982271,14.906111 L23.307799,23.4761366 C23.2844232,23.7717015 23.0222292,24 22.707259,24" id="Fill-9"></path>
                <path d="M19.5121432,33 C19.4912718,33 19.4701957,32.9986254 19.4489151,32.9954179 C19.1683785,32.9566993 18.969486,32.6707772 19.0038625,32.3569043 L19.9805227,23.5029408 C20.0153085,23.1888388 20.2710858,22.9654621 20.5512132,23.0044099 C20.8313406,23.0433576 21.0308469,23.3292797 20.9960612,23.6433817 L20.0194009,32.4975743 C19.9872753,32.7873912 19.7666929,33 19.5121432,33" id="Fill-11"></path>
            </g>
        </g>
    </g>
</svg>