<?xml version="1.0" encoding="UTF-8"?>
<svg width="88px" height="81px" viewBox="0 0 88 81" version="1.1" xmlns="http://www.w3.org/2000/svg" xmlns:xlink="http://www.w3.org/1999/xlink">
    <!-- Generator: Sketch 47.1 (45422) - http://www.bohemiancoding.com/sketch -->
    <title>Page 1</title>
    <desc>Created with Sketch.</desc>
    <defs></defs>
    <g id="Sobre---Sistran" stroke="none" stroke-width="1" fill="none" fill-rule="evenodd">
        <g id="2-Sobre" transform="translate(-821.000000, -4384.000000)" stroke="#F3A83A" stroke-width="2" fill="#F3A83A">
            <g id="Group-23" transform="translate(237.000000, 4385.000000)">
                <g id="projeto" transform="translate(523.333333, 0.000000)">
                    <g id="Page-1" transform="translate(62.476562, 0.949219)">
                        <path d="M37.2136989,42.5819995 C37.0950051,42.5819995 36.974256,42.5614465 36.8571036,42.5177713 L3.08074696,30.0441296 C1.35326372,29.40493 -0.000154147821,27.4621536 -0.000154147821,25.6200872 L-0.000154147821,14.2167452 C-0.000154147821,12.2338904 1.61325971,10.6199627 3.59662834,10.6199627 L81.1432587,10.6199627 C83.1261135,10.6199627 84.7400412,12.2338904 84.7400412,14.2167452 L84.7400412,25.6200872 C84.7400412,27.4621536 83.3861095,29.40493 81.6586262,30.0441296 L80.7979676,30.362188 C80.2656438,30.5589833 79.6747438,30.2866555 79.4779484,29.7538179 C79.281153,29.2220079 79.552967,28.6311079 80.0858046,28.4343125 L80.9459495,28.1162542 C81.8723779,27.774046 82.6847369,26.6076609 82.6847369,25.6200872 L82.6847369,14.2167452 C82.6847369,13.3668769 81.993127,12.675267 81.1432587,12.675267 L3.59662834,12.675267 C2.74676002,12.675267 2.05515013,13.3668769 2.05515013,14.2167452 L2.05515013,25.6200872 C2.05515013,26.6076609 2.86750914,27.774046 3.79342372,28.1162542 L37.5702942,40.5904097 C38.102618,40.7872051 38.374432,41.3786189 38.1771228,41.9109427 C38.0234888,42.3256003 37.6309257,42.5819995 37.2136989,42.5819995" id="Fill-1"></path>
                        <path d="M47.5258798,42.5819995 C47.1081392,42.5819995 46.7150623,42.3250865 46.5619421,41.909915 C46.3651467,41.3775912 46.6374745,40.7866912 47.1697984,40.5904097 L75.9229913,29.9716801 C76.455829,29.7748848 77.0462151,30.0466987 77.2430105,30.5795364 C77.4398059,31.1118602 77.1674781,31.7027602 76.6346405,31.8995556 L47.8814475,42.5182851 C47.7642951,42.5614465 47.6440598,42.5819995 47.5258798,42.5819995" id="Fill-4"></path>
                        <path d="M77.8727044,78.0445278 L6.86759371,78.0445278 C4.88371126,78.0445278 3.27081123,76.4311139 3.27081123,74.4477453 L3.27081123,34.4021968 C3.27081123,33.8354466 3.73068556,33.3745447 4.29846336,33.3745447 C4.86572734,33.3745447 5.3261155,33.8354466 5.3261155,34.4021968 L5.3261155,74.4477453 C5.3261155,75.2976136 6.01721156,75.9892235 6.86759371,75.9892235 L77.8727044,75.9892235 C78.7225727,75.9892235 79.4141826,75.2976136 79.4141826,74.4477453 L79.4141826,29.3975309 C79.4141826,28.8307807 79.8745707,28.3698788 80.4418347,28.3698788 C81.0090987,28.3698788 81.4694869,28.8307807 81.4694869,29.3975309 L81.4694869,74.4477453 C81.4694869,76.4311139 79.8555592,78.0445278 77.8727044,78.0445278" id="Fill-6"></path>
                        <path d="M60.7970309,12.6752156 C60.2297669,12.6752156 59.7693788,12.2153413 59.7693788,11.6475635 C59.7693788,6.35875175 52.324039,2.05545842 43.1722829,2.05545842 C34.0210406,2.05545842 26.5751871,6.35875175 26.5751871,11.6475635 C26.5751871,12.2153413 26.1153127,12.6752156 25.5475349,12.6752156 C24.9802709,12.6752156 24.5198828,12.2153413 24.5198828,11.6475635 C24.5198828,5.11632032 32.7133533,0.000154147821 43.1722829,0.000154147821 C53.6317264,0.000154147821 61.824683,5.11632032 61.824683,11.6475635 C61.824683,12.2153413 61.3642949,12.6752156 60.7970309,12.6752156" id="Fill-8"></path>
                        <path d="M38.8244409,36.6694543 C38.5027857,36.6694543 38.2412483,36.9315056 38.2412483,37.2526469 L38.2412483,49.0706465 C38.2412483,49.3923016 38.5027857,49.6538391 38.8244409,49.6538391 L45.9152406,49.6538391 C46.2368957,49.6538391 46.4984332,49.3923016 46.4984332,49.0706465 L46.4984332,37.2526469 C46.4984332,36.9315056 46.2368957,36.6694543 45.9152406,36.6694543 L38.8244409,36.6694543 Z M45.9152406,51.7091434 L38.8244409,51.7091434 C37.3697993,51.7091434 36.185944,50.5258019 36.185944,49.0706465 L36.185944,37.2526469 C36.185944,35.7980053 37.3697993,34.6141501 38.8244409,34.6141501 L45.9152406,34.6141501 C47.3698822,34.6141501 48.5537375,35.7980053 48.5537375,37.2526469 L48.5537375,49.0706465 C48.5537375,50.5258019 47.3698822,51.7091434 45.9152406,51.7091434 L45.9152406,51.7091434 Z" id="Fill-10"></path>
                    </g>
                </g>
            </g>
        </g>
    </g>
</svg>